Learning with sckinta - TidyTuesday: predict chocolate rating with xgboost
…
Operations:

Collapsing factor levels for company_manufacturer
Dummy variables from all_nominal_predictors()
Zero variance filter on all_predictors()

check preprocessed data.frame

Code

chocolate_rec %>% 
    prep(new_data = NULL) %>% 
    juice()

# A tibble: 1,831 × 20
   cocoa_percent ingre…¹ ratin…² compa…³ compa…⁴ compa…⁵ compa…⁶ compa…⁷ count…⁸
           <dbl>   <dbl> <fct>     <dbl>   <dbl>   <dbl>   <dbl>   <dbl>   <dbl>
 1            70       4 < 3           0       0       0       0       0       1
 2            70       4 < 3           0       0       0       0       0       1
 3            60       3 < 3           0       0       0       0       1       1
 4            70       2 < 3           0       0       0       0       1       1
 5            70       2 < 3           0       0       0       0       1       1
 6            75       4 < 3           0       0       0       0       1       1
 7            75       4 < 3           0       0       0       0       1       1
 8            75       5 < 3           0       0       0       0       1       1
 9            75       5 < 3           0       0       0       0       1       1
10            65       6 < 3           0       0       0       0       1       1
# … with 1,821 more rows, 11 more variables: igrdt_sugar_X1 <dbl>,
#   igrdt_vanilla_X1 <dbl>, igrdt_salt_X1 <dbl>, igrdt_sweeter_X1 <dbl>,
#   cocoa_X1 <dbl>, creamy_X1 <dbl>, fatty_X1 <dbl>, earthy_X1 <dbl>,
#   sandy_X1 <dbl>, sour_X1 <dbl>, sweet_X1 <dbl>, and abbreviated variable
#   names ¹​ingredient_num, ²​rating_bl, ³​company_manufacturer_Arete,
#   ⁴​company_manufacturer_Bonnat, ⁵​company_manufacturer_Fresco,
#   ⁶​company_manufacturer_Soma, ⁷​company_manufacturer_otherCompany, …
# ℹ Use `print(n = ...)` to see more rows, and `colnames()` to see all variable names
…
grid_max_entropy, grid_regular, grid_random can be used for quickly specify levels for tuned hyperparameters.

be aware that mtry usually requires range parameters, it usually contains the sqrt(predictor_num)

Code

xg_grid <- grid_regular(
    mtry(range = c(3, 10)),
    min_n(),
    levels = 5 # each tune how many levels
)

xg_grid

# A tibble: 25 × 2
    mtry min_n
   <int> <int>
 1     3     2
 2     4     2
 3     6     2
 4     8     2
 5    10     2
 6     3    11
 7     4    11
 8     6    11
 9     8    11
10    10    11
# … with 15 more rows
# ℹ Use `print(n = ...)` to see more rows
…
metrics are comparable to training data, so not overfiting.

collect_predictions for test data

Code

final_fit %>% 
    collect_predictions()

# A tibble: 612 × 7
   id               `.pred_< 3` `.pred_>=3`  .row .pred_class rating_bl .config 
   <chr>                  <dbl>       <dbl> <int> <fct>       <fct>     <chr>   
 1 train/test split      0.141        0.859     3 >=3         >=3       Preproc…
 2 train/test split      0.125        0.875    10 >=3         < 3       Preproc…
 3 train/test split      0.0668       0.933    11 >=3         < 3       Preproc…
 4 train/test split      0.156        0.844    17 >=3         >=3       Preproc…
 5 train/test split      0.0668       0.933    24 >=3         >=3       Preproc…
 6 train/test split      0.0668       0.933    25 >=3         >=3       Preproc…
 7 train/test split      0.0711       0.929    32 >=3         >=3       Preproc…
 8 train/test split      0.236        0.764    42 >=3         < 3       Preproc…
 9 train/test split      0.491        0.509    46 >=3         < 3       Preproc…
10 train/test split      0.385        0.615    55 >=3         < 3       Preproc…
# … with 602 more rows
# ℹ Use `print(n = ...)` to see more rows
…
